priprema_podaci_upitnik.utf8
…
podaci_wide, dakle, sadrži podskup podataka, u wide formatu. Sad ćemo taj data.frame prebaciti u long format, koristeći funkciju gather (kao, bacamo sve na hrpu) iz tidyr paketa. gatheru moramo dati neku tablicu s podacima (dakle, recimo, data.frame), odrediti ime varijable koja će služiti kao key, ime varijable koja će služiti kao value, te stupce koje želimo svesti na key - value format.

podaci_wide %>%
tidyr::gather(., key = 'pitanje', value = 'odgovor',
             descriptiveSocialNorms01:descriptiveSocialNorms04) ->
podaci_long

podaci_long
## # A tibble: 40 x 4
##    pi_gender sub_index pitanje                  odgovor
##    <fct>         <int> <chr>                      <int>
##  1 Male              1 descriptiveSocialNorms01       4
##  2 Male              2 descriptiveSocialNorms01       3
##  3 Male              3 descriptiveSocialNorms01       3
##  4 Male              4 descriptiveSocialNorms01       1
##  5 Female            5 descriptiveSocialNorms01       3
##  6 Male              6 descriptiveSocialNorms01       1
##  7 Female            7 descriptiveSocialNorms01       2
##  8 Male              8 descriptiveSocialNorms01       4
##  9 Male              9 descriptiveSocialNorms01       3
## 10 Female           10 descriptiveSocialNorms01       4
## # ... with 30 more rows
…
